/Users/marek/projekty/java/lab01/src/main/java/com/marbibu/app/App.java
/Users/marek/projekty/java/lab01/src/main/java/com/marbibu/app/Vector.java
/Users/marek/projekty/java/lab01/src/main/java/com/marbibu/app/VectorImpl.java
